fpga_project/ASK/ASK.sim/sim_1/behav/xsim/simulate.log
Vivado Simulator 2018.3
Time resolution is 1 ps
 Block Memory Generator module loading initial data...
 Block Memory Generator data initialization complete.
Block Memory Generator module tb_2ask_transmitter.uut.u_rom.inst.native_mem_module.blk_mem_gen_v8_4_2_inst is using a behavioral model for simulation which will not precisely model memory collision behavior.
Time=0: DAC_DATA=80, CS_N=1, WR1_N=1, WR2_N=1, XFER_N=1, ILE=0

=== Monitoring DDS Output ===
Time=1105000: DDS_signed=  61, DDS_unsigned=189, Modulated=128
Time=1115000: DDS_signed=  69, DDS_unsigned=197, Modulated=128
Time=1125000: DDS_signed=  74, DDS_unsigned=202, Modulated=128
Time=1135000: DDS_signed=  81, DDS_unsigned=209, Modulated=128
Time=1145000: DDS_signed=  86, DDS_unsigned=214, Modulated=128
Time=1155000: DDS_signed=  92, DDS_unsigned=220, Modulated=128
Time=1165000: DDS_signed=  96, DDS_unsigned=224, Modulated=128
Time=1175000: DDS_signed= 102, DDS_unsigned=230, Modulated=128
Time=1185000: DDS_signed= 106, DDS_unsigned=234, Modulated=128
Time=1195000: DDS_signed= 110, DDS_unsigned=238, Modulated=128
Time=1205000: DDS_signed= 115, DDS_unsigned=243, Modulated=128
Time=1215000: DDS_signed= 117, DDS_unsigned=245, Modulated=128
Time=1225000: DDS_signed= 120, DDS_unsigned=248, Modulated=128
Time=1235000: DDS_signed= 122, DDS_unsigned=250, Modulated=128
Time=1245000: DDS_signed= 124, DDS_unsigned=252, Modulated=128
Time=1255000: DDS_signed= 125, DDS_unsigned=253, Modulated=128
Time=1265000: DDS_signed= 126, DDS_unsigned=254, Modulated=128
Time=1275000: DDS_signed= 126, DDS_unsigned=254, Modulated=128
Time=1285000: DDS_signed= 126, DDS_unsigned=254, Modulated=128
Time=1295000: DDS_signed= 125, DDS_unsigned=253, Modulated=128
Time=1305000: DDS_signed= 124, DDS_unsigned=252, Modulated=128
Time=1315000: DDS_signed= 122, DDS_unsigned=250, Modulated=128
Time=1325000: DDS_signed= 120, DDS_unsigned=248, Modulated=128
Time=1335000: DDS_signed= 117, DDS_unsigned=245, Modulated=128
Time=1345000: DDS_signed= 115, DDS_unsigned=243, Modulated=128
Time=1355000: DDS_signed= 110, DDS_unsigned=238, Modulated=128
Time=1365000: DDS_signed= 106, DDS_unsigned=234, Modulated=128
Time=1375000: DDS_signed= 102, DDS_unsigned=230, Modulated=128
Time=1385000: DDS_signed=  96, DDS_unsigned=224, Modulated=128
Time=1395000: DDS_signed=  92, DDS_unsigned=220, Modulated=128
Time=1405000: DDS_signed=  86, DDS_unsigned=214, Modulated=128
Time=1415000: DDS_signed=  81, DDS_unsigned=209, Modulated=128
Time=1425000: DDS_signed=  74, DDS_unsigned=202, Modulated=128
Time=1435000: DDS_signed=  69, DDS_unsigned=197, Modulated=128
Time=1445000: DDS_signed=  61, DDS_unsigned=189, Modulated=128
Time=1455000: DDS_signed=  52, DDS_unsigned=180, Modulated=128
Time=1465000: DDS_signed=  47, DDS_unsigned=175, Modulated=128
Time=1475000: DDS_signed=  38, DDS_unsigned=166, Modulated=128
Time=1485000: DDS_signed=  32, DDS_unsigned=160, Modulated=128
Time=1495000: DDS_signed=  23, DDS_unsigned=151, Modulated=128
Time=1505000: DDS_signed=  17, DDS_unsigned=145, Modulated=128
Time=1515000: DDS_signed=   8, DDS_unsigned=136, Modulated=128
Time=1525000: DDS_signed=   2, DDS_unsigned=130, Modulated=128
Time=1535000: DDS_signed=  -8, DDS_unsigned=120, Modulated=128
Time=1545000: DDS_signed= -17, DDS_unsigned=111, Modulated=128
Time=1555000: DDS_signed= -23, DDS_unsigned=105, Modulated=128
Time=1565000: DDS_signed= -32, DDS_unsigned= 96, Modulated=128
Time=1575000: DDS_signed= -38, DDS_unsigned= 90, Modulated=128
Time=1585000: DDS_signed= -47, DDS_unsigned= 81, Modulated=128
Time=1595000: DDS_signed= -52, DDS_unsigned= 76, Modulated=128
Time=1605000: DDS_signed= -61, DDS_unsigned= 67, Modulated=128
Time=1615000: DDS_signed= -69, DDS_unsigned= 59, Modulated=128
Time=1625000: DDS_signed= -74, DDS_unsigned= 54, Modulated=128
Time=1635000: DDS_signed= -81, DDS_unsigned= 47, Modulated=128
Time=1645000: DDS_signed= -86, DDS_unsigned= 42, Modulated=128
Time=1655000: DDS_signed= -92, DDS_unsigned= 36, Modulated=128
Time=1665000: DDS_signed= -96, DDS_unsigned= 32, Modulated=128
Time=1675000: DDS_signed=-102, DDS_unsigned= 26, Modulated=128
Time=1685000: DDS_signed=-106, DDS_unsigned= 22, Modulated=128
Time=1695000: DDS_signed=-110, DDS_unsigned= 18, Modulated=128
Time=1705000: DDS_signed=-115, DDS_unsigned= 13, Modulated=128
Time=1715000: DDS_signed=-117, DDS_unsigned= 11, Modulated=128
Time=1725000: DDS_signed=-120, DDS_unsigned=  8, Modulated=128
Time=1735000: DDS_signed=-122, DDS_unsigned=  6, Modulated=128
Time=1745000: DDS_signed=-124, DDS_unsigned=  4, Modulated=128
Time=1755000: DDS_signed=-125, DDS_unsigned=  3, Modulated=128
Time=1765000: DDS_signed=-126, DDS_unsigned=  2, Modulated=128
Time=1775000: DDS_signed=-126, DDS_unsigned=  2, Modulated=128
Time=1785000: DDS_signed=-126, DDS_unsigned=  2, Modulated=128
Time=1795000: DDS_signed=-125, DDS_unsigned=  3, Modulated=128
Time=1805000: DDS_signed=-124, DDS_unsigned=  4, Modulated=128
Time=1815000: DDS_signed=-122, DDS_unsigned=  6, Modulated=128
Time=1825000: DDS_signed=-120, DDS_unsigned=  8, Modulated=128
Time=1835000: DDS_signed=-117, DDS_unsigned= 11, Modulated=128
Time=1845000: DDS_signed=-115, DDS_unsigned= 13, Modulated=128
Time=1855000: DDS_signed=-110, DDS_unsigned= 18, Modulated=128
Time=1865000: DDS_signed=-106, DDS_unsigned= 22, Modulated=128
Time=1875000: DDS_signed=-102, DDS_unsigned= 26, Modulated=128
Time=1885000: DDS_signed= -96, DDS_unsigned= 32, Modulated=128
Time=1895000: DDS_signed= -92, DDS_unsigned= 36, Modulated=128
Time=1905000: DDS_signed= -86, DDS_unsigned= 42, Modulated=128
Time=1915000: DDS_signed= -81, DDS_unsigned= 47, Modulated=128
Time=1925000: DDS_signed= -74, DDS_unsigned= 54, Modulated=128
Time=1935000: DDS_signed= -69, DDS_unsigned= 59, Modulated=128
Time=1945000: DDS_signed= -61, DDS_unsigned= 67, Modulated=128
Time=1955000: DDS_signed= -52, DDS_unsigned= 76, Modulated=128
Time=1965000: DDS_signed= -47, DDS_unsigned= 81, Modulated=128
Time=1975000: DDS_signed= -38, DDS_unsigned= 90, Modulated=128
Time=1985000: DDS_signed= -32, DDS_unsigned= 96, Modulated=128
Time=1995000: DDS_signed= -23, DDS_unsigned=105, Modulated=128
Time=2005000: DDS_signed= -17, DDS_unsigned=111, Modulated=128
Time=2015000: DDS_signed=  -8, DDS_unsigned=120, Modulated=128
Time=2025000: DDS_signed=  -2, DDS_unsigned=126, Modulated=128
Time=2035000: DDS_signed=   8, DDS_unsigned=136, Modulated=128
Time=2045000: DDS_signed=  17, DDS_unsigned=145, Modulated=128
Time=2055000: DDS_signed=  23, DDS_unsigned=151, Modulated=128
Time=2065000: DDS_signed=  32, DDS_unsigned=160, Modulated=128
Time=2075000: DDS_signed=  38, DDS_unsigned=166, Modulated=128
Time=2085000: DDS_signed=  47, DDS_unsigned=175, Modulated=128
Time=2095000: DDS_signed=  52, DDS_unsigned=180, Modulated=128
Time=10115000: DAC_DATA=80, CS_N=0, WR1_N=1, WR2_N=1, XFER_N=1, ILE=1
Time=10145000: DAC_DATA=80, CS_N=0, WR1_N=0, WR2_N=1, XFER_N=1, ILE=1
Time=10195000: DAC_DATA=80, CS_N=0, WR1_N=1, WR2_N=1, XFER_N=1, ILE=1
Time=10225000: DAC_DATA=80, CS_N=0, WR1_N=1, WR2_N=0, XFER_N=0, ILE=1
Time=10275000: DAC_DATA=80, CS_N=0, WR1_N=1, WR2_N=1, XFER_N=1, ILE=1
Time=10305000: DAC_DATA=80, CS_N=1, WR1_N=1, WR2_N=1, XFER_N=1, ILE=0
Time=20105000: Symbol period = 10.000 us, Rate = 100.000 KHz
Time=20115000: DAC_DATA=80, CS_N=0, WR1_N=1, WR2_N=1, XFER_N=1, ILE=1
Time=20145000: DAC_DATA=80, CS_N=0, WR1_N=0, WR2_N=1, XFER_N=1, ILE=1
Time=20195000: DAC_DATA=80, CS_N=0, WR1_N=1, WR2_N=1, XFER_N=1, ILE=1
Time=20225000: DAC_DATA=80, CS_N=0, WR1_N=1, WR2_N=0, XFER_N=0, ILE=1
Time=20275000: DAC_DATA=80, CS_N=0, WR1_N=1, WR2_N=1, XFER_N=1, ILE=1
Time=20305000: DAC_DATA=80, CS_N=1, WR1_N=1, WR2_N=1, XFER_N=1, ILE=0
Time=30105000: Symbol period = 10.000 us, Rate = 100.000 KHz
Time=30115000: DAC_DATA=80, CS_N=0, WR1_N=1, WR2_N=1, XFER_N=1, ILE=1
Time=30145000: DAC_DATA=80, CS_N=0, WR1_N=0, WR2_N=1, XFER_N=1, ILE=1
Time=30195000: DAC_DATA=80, CS_N=0, WR1_N=1, WR2_N=1, XFER_N=1, ILE=1
Time=30225000: DAC_DATA=80, CS_N=0, WR1_N=1, WR2_N=0, XFER_N=0, ILE=1
Time=30275000: DAC_DATA=80, CS_N=0, WR1_N=1, WR2_N=1, XFER_N=1, ILE=1
Time=30305000: DAC_DATA=80, CS_N=1, WR1_N=1, WR2_N=1, XFER_N=1, ILE=0
Time=40105000: Symbol period = 10.000 us, Rate = 100.000 KHz
Time=40115000: DAC_DATA=80, CS_N=0, WR1_N=1, WR2_N=1, XFER_N=1, ILE=1
Time=40145000: DAC_DATA=80, CS_N=0, WR1_N=0, WR2_N=1, XFER_N=1, ILE=1
Time=40195000: DAC_DATA=80, CS_N=0, WR1_N=1, WR2_N=1, XFER_N=1, ILE=1
Time=40225000: DAC_DATA=80, CS_N=0, WR1_N=1, WR2_N=0, XFER_N=0, ILE=1
Time=40275000: DAC_DATA=80, CS_N=0, WR1_N=1, WR2_N=1, XFER_N=1, ILE=1
Time=40305000: DAC_DATA=80, CS_N=1, WR1_N=1, WR2_N=1, XFER_N=1, ILE=0
Time=50105000: Symbol period = 10.000 us, Rate = 100.000 KHz
Time=50115000: DAC_DATA=80, CS_N=0, WR1_N=1, WR2_N=1, XFER_N=1, ILE=1
Time=50145000: DAC_DATA=80, CS_N=0, WR1_N=0, WR2_N=1, XFER_N=1, ILE=1
Time=50195000: DAC_DATA=80, CS_N=0, WR1_N=1, WR2_N=1, XFER_N=1, ILE=1
Time=50225000: DAC_DATA=80, CS_N=0, WR1_N=1, WR2_N=0, XFER_N=0, ILE=1
Time=50275000: DAC_DATA=80, CS_N=0, WR1_N=1, WR2_N=1, XFER_N=1, ILE=1
Time=50305000: DAC_DATA=80, CS_N=1, WR1_N=1, WR2_N=1, XFER_N=1, ILE=0
Time=60105000: Symbol period = 10.000 us, Rate = 100.000 KHz
Time=60115000: DAC_DATA=b4, CS_N=0, WR1_N=1, WR2_N=1, XFER_N=1, ILE=1
Time=60145000: DAC_DATA=b4, CS_N=0, WR1_N=0, WR2_N=1, XFER_N=1, ILE=1
Time=60195000: DAC_DATA=b4, CS_N=0, WR1_N=1, WR2_N=1, XFER_N=1, ILE=1
Time=60225000: DAC_DATA=b4, CS_N=0, WR1_N=1, WR2_N=0, XFER_N=0, ILE=1
Time=60275000: DAC_DATA=b4, CS_N=0, WR1_N=1, WR2_N=1, XFER_N=1, ILE=1
Time=60305000: DAC_DATA=b4, CS_N=1, WR1_N=1, WR2_N=1, XFER_N=1, ILE=0
Time=70105000: Symbol period = 10.000 us, Rate = 100.000 KHz
Time=70115000: DAC_DATA=b4, CS_N=0, WR1_N=1, WR2_N=1, XFER_N=1, ILE=1
Time=70145000: DAC_DATA=b4, CS_N=0, WR1_N=0, WR2_N=1, XFER_N=1, ILE=1
Time=70195000: DAC_DATA=b4, CS_N=0, WR1_N=1, WR2_N=1, XFER_N=1, ILE=1
Time=70225000: DAC_DATA=b4, CS_N=0, WR1_N=1, WR2_N=0, XFER_N=0, ILE=1
Time=70275000: DAC_DATA=b4, CS_N=0, WR1_N=1, WR2_N=1, XFER_N=1, ILE=1
Time=70305000: DAC_DATA=b4, CS_N=1, WR1_N=1, WR2_N=1, XFER_N=1, ILE=0
Time=80105000: Symbol period = 10.000 us, Rate = 100.000 KHz
Time=80115000: DAC_DATA=80, CS_N=0, WR1_N=1, WR2_N=1, XFER_N=1, ILE=1
Time=80145000: DAC_DATA=80, CS_N=0, WR1_N=0, WR2_N=1, XFER_N=1, ILE=1
Time=80195000: DAC_DATA=80, CS_N=0, WR1_N=1, WR2_N=1, XFER_N=1, ILE=1
Time=80225000: DAC_DATA=80, CS_N=0, WR1_N=1, WR2_N=0, XFER_N=0, ILE=1
Time=80275000: DAC_DATA=80, CS_N=0, WR1_N=1, WR2_N=1, XFER_N=1, ILE=1
Time=80305000: DAC_DATA=80, CS_N=1, WR1_N=1, WR2_N=1, XFER_N=1, ILE=0
Time=90105000: Symbol period = 10.000 us, Rate = 100.000 KHz
Time=90115000: DAC_DATA=b4, CS_N=0, WR1_N=1, WR2_N=1, XFER_N=1, ILE=1
Time=90145000: DAC_DATA=b4, CS_N=0, WR1_N=0, WR2_N=1, XFER_N=1, ILE=1
Time=90195000: DAC_DATA=b4, CS_N=0, WR1_N=1, WR2_N=1, XFER_N=1, ILE=1
Time=90225000: DAC_DATA=b4, CS_N=0, WR1_N=1, WR2_N=0, XFER_N=0, ILE=1
Time=90275000: DAC_DATA=b4, CS_N=0, WR1_N=1, WR2_N=1, XFER_N=1, ILE=1
Time=90305000: DAC_DATA=b4, CS_N=1, WR1_N=1, WR2_N=1, XFER_N=1, ILE=0
Time=100105000: Symbol period = 10.000 us, Rate = 100.000 KHz
Time=100115000: DAC_DATA=80, CS_N=0, WR1_N=1, WR2_N=1, XFER_N=1, ILE=1
Time=100145000: DAC_DATA=80, CS_N=0, WR1_N=0, WR2_N=1, XFER_N=1, ILE=1
Time=100195000: DAC_DATA=80, CS_N=0, WR1_N=1, WR2_N=1, XFER_N=1, ILE=1
Time=100225000: DAC_DATA=80, CS_N=0, WR1_N=1, WR2_N=0, XFER_N=0, ILE=1
Time=100275000: DAC_DATA=80, CS_N=0, WR1_N=1, WR2_N=1, XFER_N=1, ILE=1
Time=100305000: DAC_DATA=80, CS_N=1, WR1_N=1, WR2_N=1, XFER_N=1, ILE=0
Time=110105000: Symbol period = 10.000 us, Rate = 100.000 KHz
Time=110115000: DAC_DATA=b4, CS_N=0, WR1_N=1, WR2_N=1, XFER_N=1, ILE=1
Time=110145000: DAC_DATA=b4, CS_N=0, WR1_N=0, WR2_N=1, XFER_N=1, ILE=1
Time=110195000: DAC_DATA=b4, CS_N=0, WR1_N=1, WR2_N=1, XFER_N=1, ILE=1
Time=110225000: DAC_DATA=b4, CS_N=0, WR1_N=1, WR2_N=0, XFER_N=0, ILE=1
Time=110275000: DAC_DATA=b4, CS_N=0, WR1_N=1, WR2_N=1, XFER_N=1, ILE=1
Time=110305000: DAC_DATA=b4, CS_N=1, WR1_N=1, WR2_N=1, XFER_N=1, ILE=0
Time=120105000: Symbol period = 10.000 us, Rate = 100.000 KHz
Time=120115000: DAC_DATA=80, CS_N=0, WR1_N=1, WR2_N=1, XFER_N=1, ILE=1
Time=120145000: DAC_DATA=80, CS_N=0, WR1_N=0, WR2_N=1, XFER_N=1, ILE=1
Time=120195000: DAC_DATA=80, CS_N=0, WR1_N=1, WR2_N=1, XFER_N=1, ILE=1
Time=120225000: DAC_DATA=80, CS_N=0, WR1_N=1, WR2_N=0, XFER_N=0, ILE=1
Time=120275000: DAC_DATA=80, CS_N=0, WR1_N=1, WR2_N=1, XFER_N=1, ILE=1
Time=120305000: DAC_DATA=80, CS_N=1, WR1_N=1, WR2_N=1, XFER_N=1, ILE=0
Time=130105000: Symbol period = 10.000 us, Rate = 100.000 KHz
Time=130115000: DAC_DATA=80, CS_N=0, WR1_N=1, WR2_N=1, XFER_N=1, ILE=1
Time=130145000: DAC_DATA=80, CS_N=0, WR1_N=0, WR2_N=1, XFER_N=1, ILE=1
Time=130195000: DAC_DATA=80, CS_N=0, WR1_N=1, WR2_N=1, XFER_N=1, ILE=1
Time=130225000: DAC_DATA=80, CS_N=0, WR1_N=1, WR2_N=0, XFER_N=0, ILE=1
Time=130275000: DAC_DATA=80, CS_N=0, WR1_N=1, WR2_N=1, XFER_N=1, ILE=1
Time=130305000: DAC_DATA=80, CS_N=1, WR1_N=1, WR2_N=1, XFER_N=1, ILE=0
Time=140105000: Symbol period = 10.000 us, Rate = 100.000 KHz
Time=140115000: DAC_DATA=b4, CS_N=0, WR1_N=1, WR2_N=1, XFER_N=1, ILE=1
Time=140145000: DAC_DATA=b4, CS_N=0, WR1_N=0, WR2_N=1, XFER_N=1, ILE=1
Time=140195000: DAC_DATA=b4, CS_N=0, WR1_N=1, WR2_N=1, XFER_N=1, ILE=1
Time=140225000: DAC_DATA=b4, CS_N=0, WR1_N=1, WR2_N=0, XFER_N=0, ILE=1
Time=140275000: DAC_DATA=b4, CS_N=0, WR1_N=1, WR2_N=1, XFER_N=1, ILE=1
Time=140305000: DAC_DATA=b4, CS_N=1, WR1_N=1, WR2_N=1, XFER_N=1, ILE=0
Time=150105000: Symbol period = 10.000 us, Rate = 100.000 KHz
Time=150115000: DAC_DATA=80, CS_N=0, WR1_N=1, WR2_N=1, XFER_N=1, ILE=1
Time=150145000: DAC_DATA=80, CS_N=0, WR1_N=0, WR2_N=1, XFER_N=1, ILE=1
Time=150195000: DAC_DATA=80, CS_N=0, WR1_N=1, WR2_N=1, XFER_N=1, ILE=1
Time=150225000: DAC_DATA=80, CS_N=0, WR1_N=1, WR2_N=0, XFER_N=0, ILE=1
Time=150275000: DAC_DATA=80, CS_N=0, WR1_N=1, WR2_N=1, XFER_N=1, ILE=1
Time=150305000: DAC_DATA=80, CS_N=1, WR1_N=1, WR2_N=1, XFER_N=1, ILE=0
Time=160105000: Symbol period = 10.000 us, Rate = 100.000 KHz
Time=160115000: DAC_DATA=b4, CS_N=0, WR1_N=1, WR2_N=1, XFER_N=1, ILE=1
Time=160145000: DAC_DATA=b4, CS_N=0, WR1_N=0, WR2_N=1, XFER_N=1, ILE=1
Time=160195000: DAC_DATA=b4, CS_N=0, WR1_N=1, WR2_N=1, XFER_N=1, ILE=1
Time=160225000: DAC_DATA=b4, CS_N=0, WR1_N=1, WR2_N=0, XFER_N=0, ILE=1
Time=160275000: DAC_DATA=b4, CS_N=0, WR1_N=1, WR2_N=1, XFER_N=1, ILE=1
Time=160305000: DAC_DATA=b4, CS_N=1, WR1_N=1, WR2_N=1, XFER_N=1, ILE=0
Time=170105000: Symbol period = 10.000 us, Rate = 100.000 KHz
Time=170115000: DAC_DATA=b4, CS_N=0, WR1_N=1, WR2_N=1, XFER_N=1, ILE=1
Time=170145000: DAC_DATA=b4, CS_N=0, WR1_N=0, WR2_N=1, XFER_N=1, ILE=1
Time=170195000: DAC_DATA=b4, CS_N=0, WR1_N=1, WR2_N=1, XFER_N=1, ILE=1
Time=170225000: DAC_DATA=b4, CS_N=0, WR1_N=1, WR2_N=0, XFER_N=0, ILE=1
Time=170275000: DAC_DATA=b4, CS_N=0, WR1_N=1, WR2_N=1, XFER_N=1, ILE=1
Time=170305000: DAC_DATA=b4, CS_N=1, WR1_N=1, WR2_N=1, XFER_N=1, ILE=0
Time=180105000: Symbol period = 10.000 us, Rate = 100.000 KHz
Time=180115000: DAC_DATA=b4, CS_N=0, WR1_N=1, WR2_N=1, XFER_N=1, ILE=1
Time=180145000: DAC_DATA=b4, CS_N=0, WR1_N=0, WR2_N=1, XFER_N=1, ILE=1
Time=180195000: DAC_DATA=b4, CS_N=0, WR1_N=1, WR2_N=1, XFER_N=1, ILE=1
Time=180225000: DAC_DATA=b4, CS_N=0, WR1_N=1, WR2_N=0, XFER_N=0, ILE=1
Time=180275000: DAC_DATA=b4, CS_N=0, WR1_N=1, WR2_N=1, XFER_N=1, ILE=1
Time=180305000: DAC_DATA=b4, CS_N=1, WR1_N=1, WR2_N=1, XFER_N=1, ILE=0
Time=190105000: Symbol period = 10.000 us, Rate = 100.000 KHz
Time=190115000: DAC_DATA=80, CS_N=0, WR1_N=1, WR2_N=1, XFER_N=1, ILE=1
Time=190145000: DAC_DATA=80, CS_N=0, WR1_N=0, WR2_N=1, XFER_N=1, ILE=1
Time=190195000: DAC_DATA=80, CS_N=0, WR1_N=1, WR2_N=1, XFER_N=1, ILE=1
Time=190225000: DAC_DATA=80, CS_N=0, WR1_N=1, WR2_N=0, XFER_N=0, ILE=1
Time=190275000: DAC_DATA=80, CS_N=0, WR1_N=1, WR2_N=1, XFER_N=1, ILE=1
Time=190305000: DAC_DATA=80, CS_N=1, WR1_N=1, WR2_N=1, XFER_N=1, ILE=0
Time=200105000: Symbol period = 10.000 us, Rate = 100.000 KHz
Time=200115000: DAC_DATA=b4, CS_N=0, WR1_N=1, WR2_N=1, XFER_N=1, ILE=1
Time=200145000: DAC_DATA=b4, CS_N=0, WR1_N=0, WR2_N=1, XFER_N=1, ILE=1
Time=200195000: DAC_DATA=b4, CS_N=0, WR1_N=1, WR2_N=1, XFER_N=1, ILE=1
Time=200225000: DAC_DATA=b4, CS_N=0, WR1_N=1, WR2_N=0, XFER_N=0, ILE=1
Time=200275000: DAC_DATA=b4, CS_N=0, WR1_N=1, WR2_N=1, XFER_N=1, ILE=1
Time=200305000: DAC_DATA=b4, CS_N=1, WR1_N=1, WR2_N=1, XFER_N=1, ILE=0
 Block Memory Generator module loading initial data...
 Block Memory Generator data initialization complete.
Block Memory Generator module tb_2ask_transmitter.uut.u_rom.inst.native_mem_module.blk_mem_gen_v8_4_2_inst is using a behavioral model for simulation which will not precisely model memory collision behavior.
Time=0: DAC_DATA=80, CS_N=1, WR1_N=1, WR2_N=1, XFER_N=1, ILE=0

=== Monitoring DDS Output ===
Time=1105000: DDS_signed=  61, DDS_unsigned=189, Modulated=128
Time=1115000: DDS_signed=  69, DDS_unsigned=197, Modulated=128
Time=1125000: DDS_signed=  74, DDS_unsigned=202, Modulated=128
Time=1135000: DDS_signed=  81, DDS_unsigned=209, Modulated=128
Time=1145000: DDS_signed=  86, DDS_unsigned=214, Modulated=128
Time=1155000: DDS_signed=  92, DDS_unsigned=220, Modulated=128
Time=1165000: DDS_signed=  96, DDS_unsigned=224, Modulated=128
Time=1175000: DDS_signed= 102, DDS_unsigned=230, Modulated=128
Time=1185000: DDS_signed= 106, DDS_unsigned=234, Modulated=128
Time=1195000: DDS_signed= 110, DDS_unsigned=238, Modulated=128
Time=1205000: DDS_signed= 115, DDS_unsigned=243, Modulated=128
Time=1215000: DDS_signed= 117, DDS_unsigned=245, Modulated=128
Time=1225000: DDS_signed= 120, DDS_unsigned=248, Modulated=128
Time=1235000: DDS_signed= 122, DDS_unsigned=250, Modulated=128
Time=1245000: DDS_signed= 124, DDS_unsigned=252, Modulated=128
Time=1255000: DDS_signed= 125, DDS_unsigned=253, Modulated=128
Time=1265000: DDS_signed= 126, DDS_unsigned=254, Modulated=128
Time=1275000: DDS_signed= 126, DDS_unsigned=254, Modulated=128
Time=1285000: DDS_signed= 126, DDS_unsigned=254, Modulated=128
Time=1295000: DDS_signed= 125, DDS_unsigned=253, Modulated=128
Time=1305000: DDS_signed= 124, DDS_unsigned=252, Modulated=128
Time=1315000: DDS_signed= 122, DDS_unsigned=250, Modulated=128
Time=1325000: DDS_signed= 120, DDS_unsigned=248, Modulated=128
Time=1335000: DDS_signed= 117, DDS_unsigned=245, Modulated=128
Time=1345000: DDS_signed= 115, DDS_unsigned=243, Modulated=128
Time=1355000: DDS_signed= 110, DDS_unsigned=238, Modulated=128
Time=1365000: DDS_signed= 106, DDS_unsigned=234, Modulated=128
Time=1375000: DDS_signed= 102, DDS_unsigned=230, Modulated=128
Time=1385000: DDS_signed=  96, DDS_unsigned=224, Modulated=128
Time=1395000: DDS_signed=  92, DDS_unsigned=220, Modulated=128
Time=1405000: DDS_signed=  86, DDS_unsigned=214, Modulated=128
Time=1415000: DDS_signed=  81, DDS_unsigned=209, Modulated=128
Time=1425000: DDS_signed=  74, DDS_unsigned=202, Modulated=128
Time=1435000: DDS_signed=  69, DDS_unsigned=197, Modulated=128
Time=1445000: DDS_signed=  61, DDS_unsigned=189, Modulated=128
Time=1455000: DDS_signed=  52, DDS_unsigned=180, Modulated=128
Time=1465000: DDS_signed=  47, DDS_unsigned=175, Modulated=128
Time=1475000: DDS_signed=  38, DDS_unsigned=166, Modulated=128
Time=1485000: DDS_signed=  32, DDS_unsigned=160, Modulated=128
Time=1495000: DDS_signed=  23, DDS_unsigned=151, Modulated=128
Time=1505000: DDS_signed=  17, DDS_unsigned=145, Modulated=128
Time=1515000: DDS_signed=   8, DDS_unsigned=136, Modulated=128
Time=1525000: DDS_signed=   2, DDS_unsigned=130, Modulated=128
Time=1535000: DDS_signed=  -8, DDS_unsigned=120, Modulated=128
Time=1545000: DDS_signed= -17, DDS_unsigned=111, Modulated=128
Time=1555000: DDS_signed= -23, DDS_unsigned=105, Modulated=128
Time=1565000: DDS_signed= -32, DDS_unsigned= 96, Modulated=128
Time=1575000: DDS_signed= -38, DDS_unsigned= 90, Modulated=128
Time=1585000: DDS_signed= -47, DDS_unsigned= 81, Modulated=128
Time=1595000: DDS_signed= -52, DDS_unsigned= 76, Modulated=128
Time=1605000: DDS_signed= -61, DDS_unsigned= 67, Modulated=128
Time=1615000: DDS_signed= -69, DDS_unsigned= 59, Modulated=128
Time=1625000: DDS_signed= -74, DDS_unsigned= 54, Modulated=128
Time=1635000: DDS_signed= -81, DDS_unsigned= 47, Modulated=128
Time=1645000: DDS_signed= -86, DDS_unsigned= 42, Modulated=128
Time=1655000: DDS_signed= -92, DDS_unsigned= 36, Modulated=128
Time=1665000: DDS_signed= -96, DDS_unsigned= 32, Modulated=128
Time=1675000: DDS_signed=-102, DDS_unsigned= 26, Modulated=128
Time=1685000: DDS_signed=-106, DDS_unsigned= 22, Modulated=128
Time=1695000: DDS_signed=-110, DDS_unsigned= 18, Modulated=128
Time=1705000: DDS_signed=-115, DDS_unsigned= 13, Modulated=128
Time=1715000: DDS_signed=-117, DDS_unsigned= 11, Modulated=128
Time=1725000: DDS_signed=-120, DDS_unsigned=  8, Modulated=128
Time=1735000: DDS_signed=-122, DDS_unsigned=  6, Modulated=128
Time=1745000: DDS_signed=-124, DDS_unsigned=  4, Modulated=128
Time=1755000: DDS_signed=-125, DDS_unsigned=  3, Modulated=128
Time=1765000: DDS_signed=-126, DDS_unsigned=  2, Modulated=128
Time=1775000: DDS_signed=-126, DDS_unsigned=  2, Modulated=128
Time=1785000: DDS_signed=-126, DDS_unsigned=  2, Modulated=128
Time=1795000: DDS_signed=-125, DDS_unsigned=  3, Modulated=128
Time=1805000: DDS_signed=-124, DDS_unsigned=  4, Modulated=128
Time=1815000: DDS_signed=-122, DDS_unsigned=  6, Modulated=128
Time=1825000: DDS_signed=-120, DDS_unsigned=  8, Modulated=128
Time=1835000: DDS_signed=-117, DDS_unsigned= 11, Modulated=128
Time=1845000: DDS_signed=-115, DDS_unsigned= 13, Modulated=128
Time=1855000: DDS_signed=-110, DDS_unsigned= 18, Modulated=128
Time=1865000: DDS_signed=-106, DDS_unsigned= 22, Modulated=128
Time=1875000: DDS_signed=-102, DDS_unsigned= 26, Modulated=128
Time=1885000: DDS_signed= -96, DDS_unsigned= 32, Modulated=128
Time=1895000: DDS_signed= -92, DDS_unsigned= 36, Modulated=128
Time=1905000: DDS_signed= -86, DDS_unsigned= 42, Modulated=128
Time=1915000: DDS_signed= -81, DDS_unsigned= 47, Modulated=128
Time=1925000: DDS_signed= -74, DDS_unsigned= 54, Modulated=128
Time=1935000: DDS_signed= -69, DDS_unsigned= 59, Modulated=128
Time=1945000: DDS_signed= -61, DDS_unsigned= 67, Modulated=128
Time=1955000: DDS_signed= -52, DDS_unsigned= 76, Modulated=128
Time=1965000: DDS_signed= -47, DDS_unsigned= 81, Modulated=128
Time=1975000: DDS_signed= -38, DDS_unsigned= 90, Modulated=128
Time=1985000: DDS_signed= -32, DDS_unsigned= 96, Modulated=128
Time=1995000: DDS_signed= -23, DDS_unsigned=105, Modulated=128
Time=2005000: DDS_signed= -17, DDS_unsigned=111, Modulated=128
Time=2015000: DDS_signed=  -8, DDS_unsigned=120, Modulated=128
Time=2025000: DDS_signed=  -2, DDS_unsigned=126, Modulated=128
Time=2035000: DDS_signed=   8, DDS_unsigned=136, Modulated=128
Time=2045000: DDS_signed=  17, DDS_unsigned=145, Modulated=128
Time=2055000: DDS_signed=  23, DDS_unsigned=151, Modulated=128
Time=2065000: DDS_signed=  32, DDS_unsigned=160, Modulated=128
Time=2075000: DDS_signed=  38, DDS_unsigned=166, Modulated=128
Time=2085000: DDS_signed=  47, DDS_unsigned=175, Modulated=128
Time=2095000: DDS_signed=  52, DDS_unsigned=180, Modulated=128
Time=10115000: DAC_DATA=80, CS_N=0, WR1_N=1, WR2_N=1, XFER_N=1, ILE=1
Time=10145000: DAC_DATA=80, CS_N=0, WR1_N=0, WR2_N=1, XFER_N=1, ILE=1
Time=10195000: DAC_DATA=80, CS_N=0, WR1_N=1, WR2_N=1, XFER_N=1, ILE=1
Time=10225000: DAC_DATA=80, CS_N=0, WR1_N=1, WR2_N=0, XFER_N=0, ILE=1
Time=10275000: DAC_DATA=80, CS_N=0, WR1_N=1, WR2_N=1, XFER_N=1, ILE=1
